…
How can we use this now?

``` r
output = vector("list", length = 100)
for (i in 1:100) {
  output[[i]] = sim_mean_sd(n_obs = 30)
}

bind_rows(output)
```

    ## # A tibble: 100 × 2
    ##    mu_hat sigma_hat
    ##     <dbl>     <dbl>
    ##  1   7.92      3.84
    ##  2   7.17      3.85
    ##  3   6.52      3.13
    ##  4   6.57      3.18
    ##  5   6.77      4.26
    ##  6   7.67      3.72
    ##  7   6.85      4.04
    ##  8   5.85      3.79
    ##  9   6.10      3.66
    ## 10   5.92      3.72
    ## # … with 90 more rows
…
